{
  "extends": [
    "tslint:recommended",
    "tslint-react",
    "tslint-config-prettier",
    "tslint-config-standard"
  ],
  "rules": {
    "array-type": [false],
    "arrow-parens": false,
    "ban-types": [true, "Object", "Boolean", "Number", "String", "Symbol"],
    "callable-types": false,
    "class-name": true,
    "curly": true,
    "forin": false,
    "interface-name": [false],
    "interface-over-type-literal": false,
    "jsx-boolean-value": ["never"],
    "jsx-no-lambda": [false],
    "jsx-no-multiline-js": [false],
    "jsx-no-string-ref": [false],
    "jsx-wrap-multiline": [false],
    "member-access": [false],
    "member-ordering": [true, "instance-sandwich"],
    "no-angle-bracket-type-assertion": false,
    "no-bitwise": false,
    "no-conditional-assignment": false,
    "no-empty": false,
    "no-empty-interface": false,
    "no-namespace": [true, "allow-declarations"],
    "no-reference": false,
    "no-shadowed-variable": false,
    "no-string-literal": false,
    "no-unused-expression": true,
    "object-literal-key-quotes": [false],
    "object-literal-shorthand": false,
    "object-literal-sort-keys": false,
    "only-arrow-functions": [false],
    "ordered-imports": [false],
    "prefer-const": [false],
    "prefer-for-of": false,
    "semicolon": [false],
    "space-before-function-paren": [false],
    "switch-default": false,
    "triple-equals": true,
    "typedef": [true],
    "unified-signatures": [false],
    "variable-name": false,
    "no-implicit-dependencies": true,

    // Fix config standard from over reaching.
    "no-use-before-declare": false,
    "await-promise": false,
    "deprecation": false,
    "no-unused-variable": false,
    "no-floating-promises": false,
    "no-unnecessary-qualifier": false,
    "no-unnecessary-type-assertion": false,
    "strict-type-predicates": false
  }
}